"T1C_FR__EXTERNAL_ID__C","NAME","T1C_FR__FEATURE__R.T1C_FR__EXTERNAL_ID__C","T1C_FR__USER_OVERRIDABLE__C","T1C_FR__VALUE__C"
"ACE.ALM.ApplicationSettings.Toolbar.ActionButtons.Contact.ContactManagementGroup.Sync:CORE:Data","Data","ACE.ALM.ApplicationSettings.Toolbar.ActionButtons.Contact.ContactManagementGroup.Sync:CORE","true","SyncContactList"
"ACE.ALM.ApplicationSettings.Toolbar.ActionButtons.Contact.ContactManagementGroup.Sync:CORE:Enabled","Enabled","ACE.ALM.ApplicationSettings.Toolbar.ActionButtons.Contact.ContactManagementGroup.Sync:CORE","true","True"
"ACE.ALM.ApplicationSettings.Toolbar.ActionButtons.Contact.ContactManagementGroup.Sync:CORE:Icon","Icon","ACE.ALM.ApplicationSettings.Toolbar.ActionButtons.Contact.ContactManagementGroup.Sync:CORE","true","Sync"
"ACE.ALM.ApplicationSettings.Toolbar.ActionButtons.Contact.ContactManagementGroup.Sync:CORE:Label","Label","ACE.ALM.ApplicationSettings.Toolbar.ActionButtons.Contact.ContactManagementGroup.Sync:CORE","true","Sync"
"ACE.ALM.ApplicationSettings.Toolbar.ActionButtons.Contact.ContactManagementGroup.Sync:CORE:Order","Order","ACE.ALM.ApplicationSettings.Toolbar.ActionButtons.Contact.ContactManagementGroup.Sync:CORE","true","30"
"ACE.ALM.ApplicationSettings.Toolbar.ActionButtons.Contact.ContactManagementGroup.Sync:CORE:Type","Type","ACE.ALM.ApplicationSettings.Toolbar.ActionButtons.Contact.ContactManagementGroup.Sync:CORE","true","EVENT"
"ACE.ALM.ApplicationSettings.Toolbar.ActionButtons.Contact.ContactManagementGroup.Unsync:CORE:Data","Data","ACE.ALM.ApplicationSettings.Toolbar.ActionButtons.Contact.ContactManagementGroup.Unsync:CORE","true","UnSyncContactList"
"ACE.ALM.ApplicationSettings.Toolbar.ActionButtons.Contact.ContactManagementGroup.Unsync:CORE:Enabled","Enabled","ACE.ALM.ApplicationSettings.Toolbar.ActionButtons.Contact.ContactManagementGroup.Unsync:CORE","true","True"
"ACE.ALM.ApplicationSettings.Toolbar.ActionButtons.Contact.ContactManagementGroup.Unsync:CORE:Icon","Icon","ACE.ALM.ApplicationSettings.Toolbar.ActionButtons.Contact.ContactManagementGroup.Unsync:CORE","true","UnSync"
"ACE.ALM.ApplicationSettings.Toolbar.ActionButtons.Contact.ContactManagementGroup.Unsync:CORE:Label","Label","ACE.ALM.ApplicationSettings.Toolbar.ActionButtons.Contact.ContactManagementGroup.Unsync:CORE","true","Un-Sync"
"ACE.ALM.ApplicationSettings.Toolbar.ActionButtons.Contact.ContactManagementGroup.Unsync:CORE:Order","Order","ACE.ALM.ApplicationSettings.Toolbar.ActionButtons.Contact.ContactManagementGroup.Unsync:CORE","true","31"
"ACE.ALM.ApplicationSettings.Toolbar.ActionButtons.Contact.ContactManagementGroup.Unsync:CORE:Type","Type","ACE.ALM.ApplicationSettings.Toolbar.ActionButtons.Contact.ContactManagementGroup.Unsync:CORE","true","EVENT"
"ACE.Extensions.ContactEmployeeOutlookSync.Account:CORE:DataField","DataField","ACE.Extensions.ContactEmployeeOutlookSync.Account:CORE","true","T1C_Base__Contact__r.Account.Name"
"ACE.Extensions.ContactEmployeeOutlookSync.Account:CORE:FieldType","FieldType","ACE.Extensions.ContactEmployeeOutlookSync.Account:CORE","true","Text"
"ACE.Extensions.ContactEmployeeOutlookSync.Account:CORE:Label","Label","ACE.Extensions.ContactEmployeeOutlookSync.Account:CORE","true","Account"
"ACE.Extensions.ContactEmployeeOutlookSync.Account:CORE:Order","Order","ACE.Extensions.ContactEmployeeOutlookSync.Account:CORE","true","3"
"ACE.Extensions.ContactEmployeeOutlookSync.Account:CORE:Visible","Visible","ACE.Extensions.ContactEmployeeOutlookSync.Account:CORE","true","True"
"ACE.Extensions.ContactEmployeeOutlookSync.Contact:CORE:DataField","DataField","ACE.Extensions.ContactEmployeeOutlookSync.Contact:CORE","true","T1C_Base__Contact__r.Name"
"ACE.Extensions.ContactEmployeeOutlookSync.Contact:CORE:FieldType","FieldType","ACE.Extensions.ContactEmployeeOutlookSync.Contact:CORE","true","Text"
"ACE.Extensions.ContactEmployeeOutlookSync.Contact:CORE:Label","Label","ACE.Extensions.ContactEmployeeOutlookSync.Contact:CORE","true","Contact"
"ACE.Extensions.ContactEmployeeOutlookSync.Contact:CORE:Order","Order","ACE.Extensions.ContactEmployeeOutlookSync.Contact:CORE","true","2"
"ACE.Extensions.ContactEmployeeOutlookSync.Contact:CORE:Visible","Visible","ACE.Extensions.ContactEmployeeOutlookSync.Contact:CORE","true","True"
"ACE.Extensions.ContactEmployeeOutlookSync.UserField:CORE:DataField","DataField","ACE.Extensions.ContactEmployeeOutlookSync.UserField:CORE","true","T1C_Base__Ace_List__r.T1C_Base__Employee__r.Name"
"ACE.Extensions.ContactEmployeeOutlookSync.UserField:CORE:FieldType","FieldType","ACE.Extensions.ContactEmployeeOutlookSync.UserField:CORE","true","Text"
"ACE.Extensions.ContactEmployeeOutlookSync.UserField:CORE:Label","Label","ACE.Extensions.ContactEmployeeOutlookSync.UserField:CORE","true","User"
"ACE.Extensions.ContactEmployeeOutlookSync.UserField:CORE:Order","Order","ACE.Extensions.ContactEmployeeOutlookSync.UserField:CORE","true","1"
"ACE.Extensions.ContactEmployeeOutlookSync.UserField:CORE:Visible","Visible","ACE.Extensions.ContactEmployeeOutlookSync.UserField:CORE","true","True"
"ACE.ALM.ApplicationSettings.ACECubes.TopRightCube.Faces.OutlookSyncedContacts:CORE:Data","Data","ACE.ALM.ApplicationSettings.ACECubes.TopRightCube.Faces.OutlookSyncedContacts:CORE","true","{Resource.ContactEmployeeOutlookSyncInfo}"
"ACE.ALM.ApplicationSettings.ACECubes.TopRightCube.Faces.OutlookSyncedContacts:CORE:DefaultMaximized","DefaultMaximized","ACE.ALM.ApplicationSettings.ACECubes.TopRightCube.Faces.OutlookSyncedContacts:CORE","true","True"
"ACE.ALM.ApplicationSettings.ACECubes.TopRightCube.Faces.OutlookSyncedContacts:CORE:Enabled","Enabled","ACE.ALM.ApplicationSettings.ACECubes.TopRightCube.Faces.OutlookSyncedContacts:CORE","true","True"
"ACE.ALM.ApplicationSettings.ACECubes.TopRightCube.Faces.OutlookSyncedContacts:CORE:Label","Label","ACE.ALM.ApplicationSettings.ACECubes.TopRightCube.Faces.OutlookSyncedContacts:CORE","true","Outlook Synced Contacts"
"ACE.ALM.ApplicationSettings.ACECubes.TopRightCube.Faces.OutlookSyncedContacts:CORE:Order","Order","ACE.ALM.ApplicationSettings.ACECubes.TopRightCube.Faces.OutlookSyncedContacts:CORE","true","3"
"ACE.ALM.ApplicationSettings.ACECubes.TopRightCube.Faces.OutlookSyncedContacts:CORE:PluginName","PluginName","ACE.ALM.ApplicationSettings.ACECubes.TopRightCube.Faces.OutlookSyncedContacts:CORE","true","Custom.ContactEmployeeOutlookSyncInfo"
"ACE.ALM.ApplicationSettings.ACECubes.TopRightCube.Faces.OutlookSyncedContacts:CORE:Type","Type","ACE.ALM.ApplicationSettings.ACECubes.TopRightCube.Faces.OutlookSyncedContacts:CORE","true","PLUGIN"
